^D:\COURSE WORK\ME 557 REPOSITORY\ASSIGNMENT 3\CMAKEFILES\3.6.1\COMPILERIDC\CMAKECCOMPILERID.C
C:\PROGRAM FILES (X86)\MICROSOFT VISUAL STUDIO 12.0\VC\BIN\X86_AMD64\1033\CLUI.DLL
C:\WINDOWS\GLOBALIZATION\SORTING\SORTDEFAULT.NLS
C:\WINDOWS\SYSTEM32\TZRES.DLL
