^D:\COURSE WORK\ME 557 REPOSITORY\FINAL PROJECT\ME557_FINAL_PROJECT.DIR\RELEASE\BOX3D.OBJ|D:\COURSE WORK\ME 557 REPOSITORY\FINAL PROJECT\ME557_FINAL_PROJECT.DIR\RELEASE\CAMERA.OBJ|D:\COURSE WORK\ME 557 REPOSITORY\FINAL PROJECT\ME557_FINAL_PROJECT.DIR\RELEASE\CONTROLS.OBJ|D:\COURSE WORK\ME 557 REPOSITORY\FINAL PROJECT\ME557_FINAL_PROJECT.DIR\RELEASE\COORDSYSTEM.OBJ|D:\COURSE WORK\ME 557 REPOSITORY\FINAL PROJECT\ME557_FINAL_PROJECT.DIR\RELEASE\GLAPPEARANCE.OBJ|D:\COURSE WORK\ME 557 REPOSITORY\FINAL PROJECT\ME557_FINAL_PROJECT.DIR\RELEASE\GLOBJECT.OBJ|D:\COURSE WORK\ME 557 REPOSITORY\FINAL PROJECT\ME557_FINAL_PROJECT.DIR\RELEASE\GLOBJECTOBJ.OBJ|D:\COURSE WORK\ME 557 REPOSITORY\FINAL PROJECT\ME557_FINAL_PROJECT.DIR\RELEASE\GLSPHERE.OBJ|D:\COURSE WORK\ME 557 REPOSITORY\FINAL PROJECT\ME557_FINAL_PROJECT.DIR\RELEASE\HCI557COMMON.OBJ|D:\COURSE WORK\ME 557 REPOSITORY\FINAL PROJECT\ME557_FINAL_PROJECT.DIR\RELEASE\MAIN_FINAL_PROJECT.OBJ|D:\COURSE WORK\ME 557 REPOSITORY\FINAL PROJECT\ME557_FINAL_PROJECT.DIR\RELEASE\PLANE3D.OBJ|D:\COURSE WORK\ME 557 REPOSITORY\FINAL PROJECT\ME557_FINAL_PROJECT.DIR\RELEASE\SHADERS.OBJ|D:\COURSE WORK\ME 557 REPOSITORY\FINAL PROJECT\ME557_FINAL_PROJECT.DIR\RELEASE\SPHERE3D.OBJ|D:\COURSE WORK\ME 557 REPOSITORY\FINAL PROJECT\ME557_FINAL_PROJECT.DIR\RELEASE\TEXTURE.OBJ
C:\PROGRAM FILES (X86)\WINDOWS KITS\8.1\LIB\WINV6.3\UM\X64\KERNEL32.LIB
C:\PROGRAM FILES (X86)\WINDOWS KITS\8.1\LIB\WINV6.3\UM\X64\USER32.LIB
C:\PROGRAM FILES (X86)\WINDOWS KITS\8.1\LIB\WINV6.3\UM\X64\GDI32.LIB
C:\PROGRAM FILES (X86)\WINDOWS KITS\8.1\LIB\WINV6.3\UM\X64\WINSPOOL.LIB
C:\PROGRAM FILES (X86)\WINDOWS KITS\8.1\LIB\WINV6.3\UM\X64\SHELL32.LIB
C:\PROGRAM FILES (X86)\WINDOWS KITS\8.1\LIB\WINV6.3\UM\X64\OLE32.LIB
C:\PROGRAM FILES (X86)\WINDOWS KITS\8.1\LIB\WINV6.3\UM\X64\OLEAUT32.LIB
C:\PROGRAM FILES (X86)\WINDOWS KITS\8.1\LIB\WINV6.3\UM\X64\UUID.LIB
C:\PROGRAM FILES (X86)\WINDOWS KITS\8.1\LIB\WINV6.3\UM\X64\COMDLG32.LIB
C:\PROGRAM FILES (X86)\WINDOWS KITS\8.1\LIB\WINV6.3\UM\X64\ADVAPI32.LIB
D:\COURSE WORK\ME 557 REPOSITORY\SDK\LIB\GLEW32.LIB
D:\COURSE WORK\ME 557 REPOSITORY\SDK\LIB\RELEASE\GLFW.LIB
C:\PROGRAM FILES (X86)\WINDOWS KITS\8.1\LIB\WINV6.3\UM\X64\GLU32.LIB
C:\PROGRAM FILES (X86)\WINDOWS KITS\8.1\LIB\WINV6.3\UM\X64\OPENGL32.LIB
D:\COURSE WORK\ME 557 REPOSITORY\FINAL PROJECT\ME557_FINAL_PROJECT.DIR\RELEASE\MAIN_FINAL_PROJECT.OBJ
D:\COURSE WORK\ME 557 REPOSITORY\FINAL PROJECT\ME557_FINAL_PROJECT.DIR\RELEASE\HCI557COMMON.OBJ
D:\COURSE WORK\ME 557 REPOSITORY\FINAL PROJECT\ME557_FINAL_PROJECT.DIR\RELEASE\CONTROLS.OBJ
D:\COURSE WORK\ME 557 REPOSITORY\FINAL PROJECT\ME557_FINAL_PROJECT.DIR\RELEASE\COORDSYSTEM.OBJ
D:\COURSE WORK\ME 557 REPOSITORY\FINAL PROJECT\ME557_FINAL_PROJECT.DIR\RELEASE\GLOBJECT.OBJ
D:\COURSE WORK\ME 557 REPOSITORY\FINAL PROJECT\ME557_FINAL_PROJECT.DIR\RELEASE\GLOBJECTOBJ.OBJ
D:\COURSE WORK\ME 557 REPOSITORY\FINAL PROJECT\ME557_FINAL_PROJECT.DIR\RELEASE\GLSPHERE.OBJ
D:\COURSE WORK\ME 557 REPOSITORY\FINAL PROJECT\ME557_FINAL_PROJECT.DIR\RELEASE\SPHERE3D.OBJ
D:\COURSE WORK\ME 557 REPOSITORY\FINAL PROJECT\ME557_FINAL_PROJECT.DIR\RELEASE\SHADERS.OBJ
D:\COURSE WORK\ME 557 REPOSITORY\FINAL PROJECT\ME557_FINAL_PROJECT.DIR\RELEASE\BOX3D.OBJ
D:\COURSE WORK\ME 557 REPOSITORY\FINAL PROJECT\ME557_FINAL_PROJECT.DIR\RELEASE\PLANE3D.OBJ
D:\COURSE WORK\ME 557 REPOSITORY\FINAL PROJECT\ME557_FINAL_PROJECT.DIR\RELEASE\TEXTURE.OBJ
D:\COURSE WORK\ME 557 REPOSITORY\FINAL PROJECT\ME557_FINAL_PROJECT.DIR\RELEASE\GLAPPEARANCE.OBJ
D:\COURSE WORK\ME 557 REPOSITORY\FINAL PROJECT\ME557_FINAL_PROJECT.DIR\RELEASE\CAMERA.OBJ
C:\WINDOWS\GLOBALIZATION\SORTING\SORTDEFAULT.NLS
C:\PROGRAM FILES (X86)\MICROSOFT VISUAL STUDIO 12.0\VC\LIB\AMD64\MSVCPRT.LIB
C:\PROGRAM FILES (X86)\MICROSOFT VISUAL STUDIO 12.0\VC\LIB\AMD64\MSVCRT.LIB
C:\PROGRAM FILES (X86)\MICROSOFT VISUAL STUDIO 12.0\VC\LIB\AMD64\OLDNAMES.LIB
C:\PROGRAM FILES (X86)\WINDOWS KITS\8.1\BIN\X86\RC.EXE
C:\PROGRAM FILES (X86)\MICROSOFT VISUAL STUDIO 12.0\VC\BIN\CVTRES.EXE
C:\WINDOWS\SYSTEM32\TZRES.DLL
