^D:\COURSE WORK\ME 557 REPOSITORY\FINAL PROJECT\CMAKEFILES\C8C35338B09EA73AE2322B769EB6A05B\GENERATE.STAMP.RULE
C:\PROGRAM FILES\CMAKE\SHARE\CMAKE-3.6\MODULES\CMAKECINFORMATION.CMAKE
C:\PROGRAM FILES\CMAKE\SHARE\CMAKE-3.6\MODULES\CMAKECXXINFORMATION.CMAKE
C:\PROGRAM FILES\CMAKE\SHARE\CMAKE-3.6\MODULES\CMAKECOMMONLANGUAGEINCLUDE.CMAKE
C:\PROGRAM FILES\CMAKE\SHARE\CMAKE-3.6\MODULES\CMAKEGENERICSYSTEM.CMAKE
C:\PROGRAM FILES\CMAKE\SHARE\CMAKE-3.6\MODULES\CMAKELANGUAGEINFORMATION.CMAKE
C:\PROGRAM FILES\CMAKE\SHARE\CMAKE-3.6\MODULES\CMAKEPARSEARGUMENTS.CMAKE
C:\PROGRAM FILES\CMAKE\SHARE\CMAKE-3.6\MODULES\CMAKERCINFORMATION.CMAKE
C:\PROGRAM FILES\CMAKE\SHARE\CMAKE-3.6\MODULES\CMAKESYSTEMSPECIFICINFORMATION.CMAKE
C:\PROGRAM FILES\CMAKE\SHARE\CMAKE-3.6\MODULES\CMAKESYSTEMSPECIFICINITIALIZE.CMAKE
C:\PROGRAM FILES\CMAKE\SHARE\CMAKE-3.6\MODULES\COMPILER\MSVC-CXX.CMAKE
C:\PROGRAM FILES\CMAKE\SHARE\CMAKE-3.6\MODULES\FINDOPENGL.CMAKE
C:\PROGRAM FILES\CMAKE\SHARE\CMAKE-3.6\MODULES\FINDPACKAGEHANDLESTANDARDARGS.CMAKE
C:\PROGRAM FILES\CMAKE\SHARE\CMAKE-3.6\MODULES\FINDPACKAGEMESSAGE.CMAKE
C:\PROGRAM FILES\CMAKE\SHARE\CMAKE-3.6\MODULES\PLATFORM\WINDOWS-MSVC-C.CMAKE
C:\PROGRAM FILES\CMAKE\SHARE\CMAKE-3.6\MODULES\PLATFORM\WINDOWS-MSVC-CXX.CMAKE
C:\PROGRAM FILES\CMAKE\SHARE\CMAKE-3.6\MODULES\PLATFORM\WINDOWS-MSVC.CMAKE
C:\PROGRAM FILES\CMAKE\SHARE\CMAKE-3.6\MODULES\PLATFORM\WINDOWS.CMAKE
C:\PROGRAM FILES\CMAKE\SHARE\CMAKE-3.6\MODULES\PLATFORM\WINDOWSPATHS.CMAKE
D:\COURSE WORK\ME 557 REPOSITORY\FINAL PROJECT\CMAKEFILES\3.6.1\CMAKECCOMPILER.CMAKE
D:\COURSE WORK\ME 557 REPOSITORY\FINAL PROJECT\CMAKEFILES\3.6.1\CMAKECXXCOMPILER.CMAKE
D:\COURSE WORK\ME 557 REPOSITORY\FINAL PROJECT\CMAKEFILES\3.6.1\CMAKERCCOMPILER.CMAKE
D:\COURSE WORK\ME 557 REPOSITORY\FINAL PROJECT\CMAKEFILES\3.6.1\CMAKESYSTEM.CMAKE
D:\COURSE WORK\ME 557 REPOSITORY\FINAL PROJECT\CMAKELISTS.TXT
D:\COURSE WORK\ME 557 REPOSITORY\SDK\CMAKE\FINDGLEW.CMAKE
D:\COURSE WORK\ME 557 REPOSITORY\SDK\CMAKE\FINDGLFW3.CMAKE
D:\COURSE WORK\ME 557 REPOSITORY\SDK\CMAKE\FINDGLM.CMAKE
