^D:\COURSE WORK\ME 557 REPOSITORY\ASSIGNMENT 3\MAIN_HW3.CPP|D:\COURSE WORK\ME 557 REPOSITORY\GL_COMMON\CAMERA.CPP|D:\COURSE WORK\ME 557 REPOSITORY\GL_COMMON\CONTROLS.CPP|D:\COURSE WORK\ME 557 REPOSITORY\GL_COMMON\COORDSYSTEM.CPP|D:\COURSE WORK\ME 557 REPOSITORY\GL_COMMON\GLAPPEARANCE.CPP|D:\COURSE WORK\ME 557 REPOSITORY\GL_COMMON\GLOBJECT.CPP|D:\COURSE WORK\ME 557 REPOSITORY\GL_COMMON\GLSPHERE.CPP|D:\COURSE WORK\ME 557 REPOSITORY\GL_COMMON\HCI557COMMON.CPP|D:\COURSE WORK\ME 557 REPOSITORY\GL_COMMON\SHADERS.CPP
D:\COURSE WORK\ME 557 REPOSITORY\ASSIGNMENT 3\ME557_HW3.DIR\DEBUG\VC120.PDB
D:\COURSE WORK\ME 557 REPOSITORY\ASSIGNMENT 3\ME557_HW3.DIR\DEBUG\CAMERA.OBJ
D:\COURSE WORK\ME 557 REPOSITORY\ASSIGNMENT 3\ME557_HW3.DIR\DEBUG\GLAPPEARANCE.OBJ
D:\COURSE WORK\ME 557 REPOSITORY\ASSIGNMENT 3\ME557_HW3.DIR\DEBUG\SHADERS.OBJ
D:\COURSE WORK\ME 557 REPOSITORY\ASSIGNMENT 3\ME557_HW3.DIR\DEBUG\GLSPHERE.OBJ
D:\COURSE WORK\ME 557 REPOSITORY\ASSIGNMENT 3\ME557_HW3.DIR\DEBUG\GLOBJECT.OBJ
D:\COURSE WORK\ME 557 REPOSITORY\ASSIGNMENT 3\ME557_HW3.DIR\DEBUG\COORDSYSTEM.OBJ
D:\COURSE WORK\ME 557 REPOSITORY\ASSIGNMENT 3\ME557_HW3.DIR\DEBUG\CONTROLS.OBJ
D:\COURSE WORK\ME 557 REPOSITORY\ASSIGNMENT 3\ME557_HW3.DIR\DEBUG\HCI557COMMON.OBJ
D:\COURSE WORK\ME 557 REPOSITORY\ASSIGNMENT 3\ME557_HW3.DIR\DEBUG\MAIN_HW3.OBJ
^D:\COURSE WORK\ME 557 REPOSITORY\GL_COMMON\CONTROLS.CPP
D:\COURSE WORK\ME 557 REPOSITORY\ASSIGNMENT 3\ME557_HW3.DIR\DEBUG\VC120.PDB
^D:\COURSE WORK\ME 557 REPOSITORY\GL_COMMON\SHADERS.CPP
D:\COURSE WORK\ME 557 REPOSITORY\ASSIGNMENT 3\ME557_HW3.DIR\DEBUG\VC120.PDB
^D:\COURSE WORK\ME 557 REPOSITORY\GL_COMMON\CAMERA.CPP
D:\COURSE WORK\ME 557 REPOSITORY\ASSIGNMENT 3\ME557_HW3.DIR\DEBUG\VC120.PDB
^D:\COURSE WORK\ME 557 REPOSITORY\ASSIGNMENT 3\MAIN_HW3.CPP|D:\COURSE WORK\ME 557 REPOSITORY\GL_COMMON\COORDSYSTEM.CPP|D:\COURSE WORK\ME 557 REPOSITORY\GL_COMMON\GLAPPEARANCE.CPP|D:\COURSE WORK\ME 557 REPOSITORY\GL_COMMON\GLOBJECT.CPP|D:\COURSE WORK\ME 557 REPOSITORY\GL_COMMON\GLSPHERE.CPP|D:\COURSE WORK\ME 557 REPOSITORY\GL_COMMON\HCI557COMMON.CPP
D:\COURSE WORK\ME 557 REPOSITORY\ASSIGNMENT 3\ME557_HW3.DIR\DEBUG\VC120.PDB
D:\COURSE WORK\ME 557 REPOSITORY\ASSIGNMENT 3\ME557_HW3.DIR\DEBUG\HCI557COMMON.OBJ
D:\COURSE WORK\ME 557 REPOSITORY\ASSIGNMENT 3\ME557_HW3.DIR\DEBUG\GLSPHERE.OBJ
D:\COURSE WORK\ME 557 REPOSITORY\ASSIGNMENT 3\ME557_HW3.DIR\DEBUG\GLOBJECT.OBJ
D:\COURSE WORK\ME 557 REPOSITORY\ASSIGNMENT 3\ME557_HW3.DIR\DEBUG\GLAPPEARANCE.OBJ
D:\COURSE WORK\ME 557 REPOSITORY\ASSIGNMENT 3\ME557_HW3.DIR\DEBUG\COORDSYSTEM.OBJ
D:\COURSE WORK\ME 557 REPOSITORY\ASSIGNMENT 3\ME557_HW3.DIR\DEBUG\MAIN_HW3.OBJ
^D:\COURSE WORK\ME 557 REPOSITORY\GL_COMMON\COORDSYSTEM.CPP
D:\COURSE WORK\ME 557 REPOSITORY\ASSIGNMENT 3\ME557_HW3.DIR\DEBUG\VC120.PDB
^D:\COURSE WORK\ME 557 REPOSITORY\GL_COMMON\GLAPPEARANCE.CPP
D:\COURSE WORK\ME 557 REPOSITORY\ASSIGNMENT 3\ME557_HW3.DIR\DEBUG\VC120.PDB
^D:\COURSE WORK\ME 557 REPOSITORY\GL_COMMON\GLOBJECT.CPP
D:\COURSE WORK\ME 557 REPOSITORY\ASSIGNMENT 3\ME557_HW3.DIR\DEBUG\VC120.PDB
^D:\COURSE WORK\ME 557 REPOSITORY\GL_COMMON\HCI557COMMON.CPP
D:\COURSE WORK\ME 557 REPOSITORY\ASSIGNMENT 3\ME557_HW3.DIR\DEBUG\VC120.PDB
^D:\COURSE WORK\ME 557 REPOSITORY\ASSIGNMENT 3\MAIN_HW3.CPP|D:\COURSE WORK\ME 557 REPOSITORY\GL_COMMON\GLSPHERE.CPP
D:\COURSE WORK\ME 557 REPOSITORY\ASSIGNMENT 3\ME557_HW3.DIR\DEBUG\VC120.PDB
D:\COURSE WORK\ME 557 REPOSITORY\ASSIGNMENT 3\ME557_HW3.DIR\DEBUG\GLSPHERE.OBJ
D:\COURSE WORK\ME 557 REPOSITORY\ASSIGNMENT 3\ME557_HW3.DIR\DEBUG\MAIN_HW3.OBJ
^D:\COURSE WORK\ME 557 REPOSITORY\ASSIGNMENT 3\MAIN_HW3.CPP
D:\COURSE WORK\ME 557 REPOSITORY\ASSIGNMENT 3\ME557_HW3.DIR\DEBUG\VC120.PDB
^D:\COURSE WORK\ME 557 REPOSITORY\GL_COMMON\GLSPHERE.CPP
D:\COURSE WORK\ME 557 REPOSITORY\ASSIGNMENT 3\ME557_HW3.DIR\DEBUG\VC120.PDB
D:\COURSE WORK\ME 557 REPOSITORY\ASSIGNMENT 3\ME557_HW3.DIR\DEBUG\GLSPHERE.OBJ
^D:\COURSE WORK\ME 557 REPOSITORY\ASSIGNMENT 3\GLSPHERE.CPP
D:\COURSE WORK\ME 557 REPOSITORY\ASSIGNMENT 3\ME557_HW3.DIR\DEBUG\VC120.PDB
D:\COURSE WORK\ME 557 REPOSITORY\ASSIGNMENT 3\ME557_HW3.DIR\DEBUG\GLSPHERE.OBJ
