^C:\USERS\ADITYAB\DOCUMENTS\ME_557_2016_AB\ASSIGNMENT 3\ME557_HW3.DIR\DEBUG\CAMERA.OBJ|C:\USERS\ADITYAB\DOCUMENTS\ME_557_2016_AB\ASSIGNMENT 3\ME557_HW3.DIR\DEBUG\CONTROLS.OBJ|C:\USERS\ADITYAB\DOCUMENTS\ME_557_2016_AB\ASSIGNMENT 3\ME557_HW3.DIR\DEBUG\COORDSYSTEM.OBJ|C:\USERS\ADITYAB\DOCUMENTS\ME_557_2016_AB\ASSIGNMENT 3\ME557_HW3.DIR\DEBUG\GLAPPEARANCE.OBJ|C:\USERS\ADITYAB\DOCUMENTS\ME_557_2016_AB\ASSIGNMENT 3\ME557_HW3.DIR\DEBUG\GLOBJECT.OBJ|C:\USERS\ADITYAB\DOCUMENTS\ME_557_2016_AB\ASSIGNMENT 3\ME557_HW3.DIR\DEBUG\GLSPHERE.OBJ|C:\USERS\ADITYAB\DOCUMENTS\ME_557_2016_AB\ASSIGNMENT 3\ME557_HW3.DIR\DEBUG\HCI557COMMON.OBJ|C:\USERS\ADITYAB\DOCUMENTS\ME_557_2016_AB\ASSIGNMENT 3\ME557_HW3.DIR\DEBUG\MAIN_HW3.OBJ|C:\USERS\ADITYAB\DOCUMENTS\ME_557_2016_AB\ASSIGNMENT 3\ME557_HW3.DIR\DEBUG\SHADERS.OBJ
C:\PROGRAM FILES (X86)\WINDOWS KITS\8.1\LIB\WINV6.3\UM\X64\KERNEL32.LIB
C:\PROGRAM FILES (X86)\WINDOWS KITS\8.1\LIB\WINV6.3\UM\X64\USER32.LIB
C:\PROGRAM FILES (X86)\WINDOWS KITS\8.1\LIB\WINV6.3\UM\X64\GDI32.LIB
C:\PROGRAM FILES (X86)\WINDOWS KITS\8.1\LIB\WINV6.3\UM\X64\WINSPOOL.LIB
C:\PROGRAM FILES (X86)\WINDOWS KITS\8.1\LIB\WINV6.3\UM\X64\SHELL32.LIB
C:\PROGRAM FILES (X86)\WINDOWS KITS\8.1\LIB\WINV6.3\UM\X64\OLE32.LIB
C:\PROGRAM FILES (X86)\WINDOWS KITS\8.1\LIB\WINV6.3\UM\X64\OLEAUT32.LIB
C:\PROGRAM FILES (X86)\WINDOWS KITS\8.1\LIB\WINV6.3\UM\X64\UUID.LIB
C:\PROGRAM FILES (X86)\WINDOWS KITS\8.1\LIB\WINV6.3\UM\X64\COMDLG32.LIB
C:\PROGRAM FILES (X86)\WINDOWS KITS\8.1\LIB\WINV6.3\UM\X64\ADVAPI32.LIB
D:\COURSE WORK\ME 557 REPOSITORY\SDK\LIB\GLEW32.LIB
D:\COURSE WORK\ME 557 REPOSITORY\SDK\LIB\RELEASE\GLFW.LIB
C:\PROGRAM FILES (X86)\WINDOWS KITS\8.1\LIB\WINV6.3\UM\X64\GLU32.LIB
C:\PROGRAM FILES (X86)\WINDOWS KITS\8.1\LIB\WINV6.3\UM\X64\OPENGL32.LIB
C:\USERS\ADITYAB\DOCUMENTS\ME_557_2016_AB\ASSIGNMENT 3\ME557_HW3.DIR\DEBUG\MAIN_HW3.OBJ
C:\USERS\ADITYAB\DOCUMENTS\ME_557_2016_AB\ASSIGNMENT 3\ME557_HW3.DIR\DEBUG\GLSPHERE.OBJ
C:\USERS\ADITYAB\DOCUMENTS\ME_557_2016_AB\ASSIGNMENT 3\ME557_HW3.DIR\DEBUG\HCI557COMMON.OBJ
C:\USERS\ADITYAB\DOCUMENTS\ME_557_2016_AB\ASSIGNMENT 3\ME557_HW3.DIR\DEBUG\CONTROLS.OBJ
C:\USERS\ADITYAB\DOCUMENTS\ME_557_2016_AB\ASSIGNMENT 3\ME557_HW3.DIR\DEBUG\COORDSYSTEM.OBJ
C:\USERS\ADITYAB\DOCUMENTS\ME_557_2016_AB\ASSIGNMENT 3\ME557_HW3.DIR\DEBUG\GLOBJECT.OBJ
C:\USERS\ADITYAB\DOCUMENTS\ME_557_2016_AB\ASSIGNMENT 3\ME557_HW3.DIR\DEBUG\SHADERS.OBJ
C:\USERS\ADITYAB\DOCUMENTS\ME_557_2016_AB\ASSIGNMENT 3\ME557_HW3.DIR\DEBUG\GLAPPEARANCE.OBJ
C:\USERS\ADITYAB\DOCUMENTS\ME_557_2016_AB\ASSIGNMENT 3\ME557_HW3.DIR\DEBUG\CAMERA.OBJ
C:\WINDOWS\SYSTEM32\TZRES.DLL
C:\WINDOWS\GLOBALIZATION\SORTING\SORTDEFAULT.NLS
C:\PROGRAM FILES (X86)\MICROSOFT VISUAL STUDIO 12.0\VC\LIB\AMD64\MSVCPRTD.LIB
C:\PROGRAM FILES (X86)\MICROSOFT VISUAL STUDIO 12.0\VC\LIB\AMD64\MSVCRTD.LIB
C:\PROGRAM FILES (X86)\MICROSOFT VISUAL STUDIO 12.0\VC\LIB\AMD64\OLDNAMES.LIB
C:\PROGRAM FILES (X86)\MICROSOFT VISUAL STUDIO 12.0\VC\LIB\AMD64\MSVCRT.LIB
C:\PROGRAM FILES (X86)\MICROSOFT VISUAL STUDIO 12.0\VC\BIN\X86_AMD64\LINK.EXE
C:\PROGRAM FILES (X86)\MICROSOFT VISUAL STUDIO 12.0\VC\BIN\X86_AMD64\1033\LINKUI.DLL
C:\PROGRAM FILES (X86)\WINDOWS KITS\8.1\BIN\X86\RC.EXE
C:\PROGRAM FILES (X86)\MICROSOFT VISUAL STUDIO 12.0\VC\BIN\CVTRES.EXE
