^C:\USERS\ADITYAB\DOCUMENTS\ME_557_2016_AB\ASSIGNMENT 3\ME557_HW3.DIR\DEBUG\CAMERA.OBJ|C:\USERS\ADITYAB\DOCUMENTS\ME_557_2016_AB\ASSIGNMENT 3\ME557_HW3.DIR\DEBUG\CONTROLS.OBJ|C:\USERS\ADITYAB\DOCUMENTS\ME_557_2016_AB\ASSIGNMENT 3\ME557_HW3.DIR\DEBUG\COORDSYSTEM.OBJ|C:\USERS\ADITYAB\DOCUMENTS\ME_557_2016_AB\ASSIGNMENT 3\ME557_HW3.DIR\DEBUG\GLAPPEARANCE.OBJ|C:\USERS\ADITYAB\DOCUMENTS\ME_557_2016_AB\ASSIGNMENT 3\ME557_HW3.DIR\DEBUG\GLOBJECT.OBJ|C:\USERS\ADITYAB\DOCUMENTS\ME_557_2016_AB\ASSIGNMENT 3\ME557_HW3.DIR\DEBUG\GLSPHERE.OBJ|C:\USERS\ADITYAB\DOCUMENTS\ME_557_2016_AB\ASSIGNMENT 3\ME557_HW3.DIR\DEBUG\HCI557COMMON.OBJ|C:\USERS\ADITYAB\DOCUMENTS\ME_557_2016_AB\ASSIGNMENT 3\ME557_HW3.DIR\DEBUG\MAIN_HW3.OBJ|C:\USERS\ADITYAB\DOCUMENTS\ME_557_2016_AB\ASSIGNMENT 3\ME557_HW3.DIR\DEBUG\SHADERS.OBJ
D:\COURSE WORK\ME 557 REPOSITORY\ASSIGNMENT 3\DEBUG\ME557_HW3.ILK
D:\COURSE WORK\ME 557 REPOSITORY\ASSIGNMENT 3\DEBUG\ME557_HW3.EXE
D:\COURSE WORK\ME 557 REPOSITORY\ASSIGNMENT 3\DEBUG\ME557_HW3.PDB
