^D:\COURSE WORK\ME 557 REPOSITORY\ASSIGNMENTS\02_3D_MODELING\HW2_PROGRAM.DIR\DEBUG\CONTROLS.OBJ|D:\COURSE WORK\ME 557 REPOSITORY\ASSIGNMENTS\02_3D_MODELING\HW2_PROGRAM.DIR\DEBUG\COORDSYSTEM.OBJ|D:\COURSE WORK\ME 557 REPOSITORY\ASSIGNMENTS\02_3D_MODELING\HW2_PROGRAM.DIR\DEBUG\HCI557COMMON.OBJ|D:\COURSE WORK\ME 557 REPOSITORY\ASSIGNMENTS\02_3D_MODELING\HW2_PROGRAM.DIR\DEBUG\HW2_MAIN.OBJ
D:\COURSE WORK\ME 557 REPOSITORY\ASSIGNMENTS\02_3D_MODELING\DEBUG\HW2_PROGRAM.ILK
D:\COURSE WORK\ME 557 REPOSITORY\ASSIGNMENTS\02_3D_MODELING\DEBUG\HW2_PROGRAM.EXE
D:\COURSE WORK\ME 557 REPOSITORY\ASSIGNMENTS\02_3D_MODELING\DEBUG\HW2_PROGRAM.PDB
