^D:\COURSE WORK\ME 557 REPOSITORY\ASSIGNMENT_4_P2\MAIN_HW4.CPP|D:\COURSE WORK\ME 557 REPOSITORY\GL_COMMON\CAMERA.CPP|D:\COURSE WORK\ME 557 REPOSITORY\GL_COMMON\CONTROLS.CPP|D:\COURSE WORK\ME 557 REPOSITORY\GL_COMMON\COORDSYSTEM.CPP|D:\COURSE WORK\ME 557 REPOSITORY\GL_COMMON\GLAPPEARANCE.CPP|D:\COURSE WORK\ME 557 REPOSITORY\GL_COMMON\GLOBJECT.CPP|D:\COURSE WORK\ME 557 REPOSITORY\GL_COMMON\GLSPHERE.CPP|D:\COURSE WORK\ME 557 REPOSITORY\GL_COMMON\HCI557COMMON.CPP|D:\COURSE WORK\ME 557 REPOSITORY\GL_COMMON\PLANE3D.CPP|D:\COURSE WORK\ME 557 REPOSITORY\GL_COMMON\SHADERS.CPP|D:\COURSE WORK\ME 557 REPOSITORY\GL_COMMON\TEXTURE.CPP
D:\COURSE WORK\ME 557 REPOSITORY\ASSIGNMENT_4_P2\HW_4_2.DIR\DEBUG\VC120.PDB
D:\COURSE WORK\ME 557 REPOSITORY\ASSIGNMENT_4_P2\HW_4_2.DIR\DEBUG\CAMERA.OBJ
D:\COURSE WORK\ME 557 REPOSITORY\ASSIGNMENT_4_P2\HW_4_2.DIR\DEBUG\GLAPPEARANCE.OBJ
D:\COURSE WORK\ME 557 REPOSITORY\ASSIGNMENT_4_P2\HW_4_2.DIR\DEBUG\TEXTURE.OBJ
D:\COURSE WORK\ME 557 REPOSITORY\ASSIGNMENT_4_P2\HW_4_2.DIR\DEBUG\PLANE3D.OBJ
D:\COURSE WORK\ME 557 REPOSITORY\ASSIGNMENT_4_P2\HW_4_2.DIR\DEBUG\SHADERS.OBJ
D:\COURSE WORK\ME 557 REPOSITORY\ASSIGNMENT_4_P2\HW_4_2.DIR\DEBUG\GLSPHERE.OBJ
D:\COURSE WORK\ME 557 REPOSITORY\ASSIGNMENT_4_P2\HW_4_2.DIR\DEBUG\GLOBJECT.OBJ
D:\COURSE WORK\ME 557 REPOSITORY\ASSIGNMENT_4_P2\HW_4_2.DIR\DEBUG\COORDSYSTEM.OBJ
D:\COURSE WORK\ME 557 REPOSITORY\ASSIGNMENT_4_P2\HW_4_2.DIR\DEBUG\CONTROLS.OBJ
D:\COURSE WORK\ME 557 REPOSITORY\ASSIGNMENT_4_P2\HW_4_2.DIR\DEBUG\HCI557COMMON.OBJ
D:\COURSE WORK\ME 557 REPOSITORY\ASSIGNMENT_4_P2\HW_4_2.DIR\DEBUG\MAIN_HW4.OBJ
^D:\COURSE WORK\ME 557 REPOSITORY\GL_COMMON\CONTROLS.CPP
D:\COURSE WORK\ME 557 REPOSITORY\ASSIGNMENT_4_P2\HW_4_2.DIR\DEBUG\VC120.PDB
^D:\COURSE WORK\ME 557 REPOSITORY\GL_COMMON\SHADERS.CPP
D:\COURSE WORK\ME 557 REPOSITORY\ASSIGNMENT_4_P2\HW_4_2.DIR\DEBUG\VC120.PDB
^D:\COURSE WORK\ME 557 REPOSITORY\GL_COMMON\CAMERA.CPP
D:\COURSE WORK\ME 557 REPOSITORY\ASSIGNMENT_4_P2\HW_4_2.DIR\DEBUG\VC120.PDB
^D:\COURSE WORK\ME 557 REPOSITORY\ASSIGNMENT_4_P2\MAIN_HW4.CPP|D:\COURSE WORK\ME 557 REPOSITORY\GL_COMMON\COORDSYSTEM.CPP|D:\COURSE WORK\ME 557 REPOSITORY\GL_COMMON\GLAPPEARANCE.CPP|D:\COURSE WORK\ME 557 REPOSITORY\GL_COMMON\GLOBJECT.CPP|D:\COURSE WORK\ME 557 REPOSITORY\GL_COMMON\GLSPHERE.CPP|D:\COURSE WORK\ME 557 REPOSITORY\GL_COMMON\HCI557COMMON.CPP|D:\COURSE WORK\ME 557 REPOSITORY\GL_COMMON\PLANE3D.CPP|D:\COURSE WORK\ME 557 REPOSITORY\GL_COMMON\TEXTURE.CPP
D:\COURSE WORK\ME 557 REPOSITORY\ASSIGNMENT_4_P2\HW_4_2.DIR\DEBUG\VC120.PDB
D:\COURSE WORK\ME 557 REPOSITORY\ASSIGNMENT_4_P2\HW_4_2.DIR\DEBUG\TEXTURE.OBJ
D:\COURSE WORK\ME 557 REPOSITORY\ASSIGNMENT_4_P2\HW_4_2.DIR\DEBUG\PLANE3D.OBJ
D:\COURSE WORK\ME 557 REPOSITORY\ASSIGNMENT_4_P2\HW_4_2.DIR\DEBUG\HCI557COMMON.OBJ
D:\COURSE WORK\ME 557 REPOSITORY\ASSIGNMENT_4_P2\HW_4_2.DIR\DEBUG\GLSPHERE.OBJ
D:\COURSE WORK\ME 557 REPOSITORY\ASSIGNMENT_4_P2\HW_4_2.DIR\DEBUG\GLOBJECT.OBJ
D:\COURSE WORK\ME 557 REPOSITORY\ASSIGNMENT_4_P2\HW_4_2.DIR\DEBUG\GLAPPEARANCE.OBJ
D:\COURSE WORK\ME 557 REPOSITORY\ASSIGNMENT_4_P2\HW_4_2.DIR\DEBUG\COORDSYSTEM.OBJ
D:\COURSE WORK\ME 557 REPOSITORY\ASSIGNMENT_4_P2\HW_4_2.DIR\DEBUG\MAIN_HW4.OBJ
^D:\COURSE WORK\ME 557 REPOSITORY\GL_COMMON\COORDSYSTEM.CPP
D:\COURSE WORK\ME 557 REPOSITORY\ASSIGNMENT_4_P2\HW_4_2.DIR\DEBUG\VC120.PDB
^D:\COURSE WORK\ME 557 REPOSITORY\GL_COMMON\GLAPPEARANCE.CPP
D:\COURSE WORK\ME 557 REPOSITORY\ASSIGNMENT_4_P2\HW_4_2.DIR\DEBUG\VC120.PDB
^D:\COURSE WORK\ME 557 REPOSITORY\GL_COMMON\GLOBJECT.CPP
D:\COURSE WORK\ME 557 REPOSITORY\ASSIGNMENT_4_P2\HW_4_2.DIR\DEBUG\VC120.PDB
^D:\COURSE WORK\ME 557 REPOSITORY\GL_COMMON\GLSPHERE.CPP
D:\COURSE WORK\ME 557 REPOSITORY\ASSIGNMENT_4_P2\HW_4_2.DIR\DEBUG\VC120.PDB
^D:\COURSE WORK\ME 557 REPOSITORY\GL_COMMON\HCI557COMMON.CPP
D:\COURSE WORK\ME 557 REPOSITORY\ASSIGNMENT_4_P2\HW_4_2.DIR\DEBUG\VC120.PDB
^D:\COURSE WORK\ME 557 REPOSITORY\GL_COMMON\PLANE3D.CPP
D:\COURSE WORK\ME 557 REPOSITORY\ASSIGNMENT_4_P2\HW_4_2.DIR\DEBUG\VC120.PDB
^D:\COURSE WORK\ME 557 REPOSITORY\GL_COMMON\TEXTURE.CPP
D:\COURSE WORK\ME 557 REPOSITORY\ASSIGNMENT_4_P2\HW_4_2.DIR\DEBUG\VC120.PDB
D:\COURSE WORK\ME 557 REPOSITORY\ASSIGNMENT_4_P2\HW_4_2.DIR\DEBUG\TEXTURE.OBJ
^D:\COURSE WORK\ME 557 REPOSITORY\ASSIGNMENT_4_P2\MAIN_HW4.CPP|D:\COURSE WORK\ME 557 REPOSITORY\ASSIGNMENT_4_P2\TEXTURE.CPP
D:\COURSE WORK\ME 557 REPOSITORY\ASSIGNMENT_4_P2\HW_4_2.DIR\DEBUG\VC120.PDB
D:\COURSE WORK\ME 557 REPOSITORY\ASSIGNMENT_4_P2\HW_4_2.DIR\DEBUG\TEXTURE.OBJ
^D:\COURSE WORK\ME 557 REPOSITORY\ASSIGNMENT_4_P2\TEXTURE.CPP
D:\COURSE WORK\ME 557 REPOSITORY\ASSIGNMENT_4_P2\HW_4_2.DIR\DEBUG\TEXTURE.OBJ
^D:\COURSE WORK\ME 557 REPOSITORY\ASSIGNMENT_4_P2\GL_COMMON\CAMERA.CPP|D:\COURSE WORK\ME 557 REPOSITORY\ASSIGNMENT_4_P2\GL_COMMON\CONTROLS.CPP|D:\COURSE WORK\ME 557 REPOSITORY\ASSIGNMENT_4_P2\GL_COMMON\COORDSYSTEM.CPP|D:\COURSE WORK\ME 557 REPOSITORY\ASSIGNMENT_4_P2\GL_COMMON\GLAPPEARANCE.CPP|D:\COURSE WORK\ME 557 REPOSITORY\ASSIGNMENT_4_P2\GL_COMMON\GLOBJECT.CPP|D:\COURSE WORK\ME 557 REPOSITORY\ASSIGNMENT_4_P2\GL_COMMON\GLSPHERE.CPP|D:\COURSE WORK\ME 557 REPOSITORY\ASSIGNMENT_4_P2\GL_COMMON\HCI557COMMON.CPP|D:\COURSE WORK\ME 557 REPOSITORY\ASSIGNMENT_4_P2\GL_COMMON\PLANE3D.CPP|D:\COURSE WORK\ME 557 REPOSITORY\ASSIGNMENT_4_P2\GL_COMMON\SHADERS.CPP|D:\COURSE WORK\ME 557 REPOSITORY\ASSIGNMENT_4_P2\GL_COMMON\TEXTURE.CPP|D:\COURSE WORK\ME 557 REPOSITORY\ASSIGNMENT_4_P2\MAIN_HW4.CPP
D:\COURSE WORK\ME 557 REPOSITORY\ASSIGNMENT_4_P2\HW_4_2.DIR\DEBUG\VC120.PDB
D:\COURSE WORK\ME 557 REPOSITORY\ASSIGNMENT_4_P2\HW_4_2.DIR\DEBUG\CAMERA.OBJ
D:\COURSE WORK\ME 557 REPOSITORY\ASSIGNMENT_4_P2\HW_4_2.DIR\DEBUG\GLAPPEARANCE.OBJ
D:\COURSE WORK\ME 557 REPOSITORY\ASSIGNMENT_4_P2\HW_4_2.DIR\DEBUG\TEXTURE.OBJ
D:\COURSE WORK\ME 557 REPOSITORY\ASSIGNMENT_4_P2\HW_4_2.DIR\DEBUG\PLANE3D.OBJ
D:\COURSE WORK\ME 557 REPOSITORY\ASSIGNMENT_4_P2\HW_4_2.DIR\DEBUG\SHADERS.OBJ
D:\COURSE WORK\ME 557 REPOSITORY\ASSIGNMENT_4_P2\HW_4_2.DIR\DEBUG\GLSPHERE.OBJ
D:\COURSE WORK\ME 557 REPOSITORY\ASSIGNMENT_4_P2\HW_4_2.DIR\DEBUG\GLOBJECT.OBJ
D:\COURSE WORK\ME 557 REPOSITORY\ASSIGNMENT_4_P2\HW_4_2.DIR\DEBUG\COORDSYSTEM.OBJ
D:\COURSE WORK\ME 557 REPOSITORY\ASSIGNMENT_4_P2\HW_4_2.DIR\DEBUG\CONTROLS.OBJ
D:\COURSE WORK\ME 557 REPOSITORY\ASSIGNMENT_4_P2\HW_4_2.DIR\DEBUG\HCI557COMMON.OBJ
^D:\COURSE WORK\ME 557 REPOSITORY\ASSIGNMENT_4_P2\GL_COMMON\HCI557COMMON.CPP
D:\COURSE WORK\ME 557 REPOSITORY\ASSIGNMENT_4_P2\HW_4_2.DIR\DEBUG\HCI557COMMON.OBJ
^D:\COURSE WORK\ME 557 REPOSITORY\ASSIGNMENT_4_P2\GL_COMMON\CONTROLS.CPP
D:\COURSE WORK\ME 557 REPOSITORY\ASSIGNMENT_4_P2\HW_4_2.DIR\DEBUG\CONTROLS.OBJ
^D:\COURSE WORK\ME 557 REPOSITORY\ASSIGNMENT_4_P2\GL_COMMON\COORDSYSTEM.CPP
D:\COURSE WORK\ME 557 REPOSITORY\ASSIGNMENT_4_P2\HW_4_2.DIR\DEBUG\COORDSYSTEM.OBJ
^D:\COURSE WORK\ME 557 REPOSITORY\ASSIGNMENT_4_P2\GL_COMMON\GLOBJECT.CPP
D:\COURSE WORK\ME 557 REPOSITORY\ASSIGNMENT_4_P2\HW_4_2.DIR\DEBUG\GLOBJECT.OBJ
^D:\COURSE WORK\ME 557 REPOSITORY\ASSIGNMENT_4_P2\GL_COMMON\GLSPHERE.CPP
D:\COURSE WORK\ME 557 REPOSITORY\ASSIGNMENT_4_P2\HW_4_2.DIR\DEBUG\GLSPHERE.OBJ
^D:\COURSE WORK\ME 557 REPOSITORY\ASSIGNMENT_4_P2\GL_COMMON\SHADERS.CPP
D:\COURSE WORK\ME 557 REPOSITORY\ASSIGNMENT_4_P2\HW_4_2.DIR\DEBUG\SHADERS.OBJ
^D:\COURSE WORK\ME 557 REPOSITORY\ASSIGNMENT_4_P2\GL_COMMON\PLANE3D.CPP
D:\COURSE WORK\ME 557 REPOSITORY\ASSIGNMENT_4_P2\HW_4_2.DIR\DEBUG\PLANE3D.OBJ
^D:\COURSE WORK\ME 557 REPOSITORY\ASSIGNMENT_4_P2\GL_COMMON\TEXTURE.CPP
D:\COURSE WORK\ME 557 REPOSITORY\ASSIGNMENT_4_P2\HW_4_2.DIR\DEBUG\TEXTURE.OBJ
^D:\COURSE WORK\ME 557 REPOSITORY\ASSIGNMENT_4_P2\GL_COMMON\GLAPPEARANCE.CPP
D:\COURSE WORK\ME 557 REPOSITORY\ASSIGNMENT_4_P2\HW_4_2.DIR\DEBUG\GLAPPEARANCE.OBJ
^D:\COURSE WORK\ME 557 REPOSITORY\ASSIGNMENT_4_P2\GL_COMMON\CAMERA.CPP
D:\COURSE WORK\ME 557 REPOSITORY\ASSIGNMENT_4_P2\HW_4_2.DIR\DEBUG\CAMERA.OBJ
^D:\COURSE WORK\ME 557 REPOSITORY\ASSIGNMENT_4_P2\MAIN_HW4.CPP
D:\COURSE WORK\ME 557 REPOSITORY\ASSIGNMENT_4_P2\HW_4_2.DIR\DEBUG\VC120.PDB
D:\COURSE WORK\ME 557 REPOSITORY\ASSIGNMENT_4_P2\HW_4_2.DIR\DEBUG\MAIN_HW4.OBJ
